<?xml version="1.0" encoding="UTF-8"?>
<svg xmlns="http://www.w3.org/2000/svg" xmlns:xlink="http://www.w3.org/1999/xlink" width="16px" height="16px" viewBox="0 0 16 16" version="1.1">
<g id="surface10590">
<path style=" stroke:none;fill-rule:nonzero;fill:rgb(13.333334%,13.333334%,13.333334%);fill-opacity:1;" d="M 8.59375 1 C 9.207031 1.007812 9.828125 1.089844 10.441406 1.253906 C 13.714844 2.132812 16 5.109375 16 8.5 C 16 11.890625 13.714844 14.867188 10.441406 15.742188 C 7.167969 16.621094 3.699219 15.183594 2.003906 12.25 C 1.726562 11.769531 1.894531 11.160156 2.371094 10.882812 C 2.847656 10.609375 3.460938 10.773438 3.738281 11.25 C 4.984375 13.410156 7.515625 14.457031 9.925781 13.8125 C 12.332031 13.167969 14 10.992188 14 8.5 C 14 6.003906 12.332031 3.832031 9.925781 3.1875 C 7.515625 2.542969 4.984375 3.589844 3.738281 5.75 C 3.679688 5.835938 3.613281 5.914062 3.535156 5.976562 L 3.554688 5.992188 L 3.5625 6 L 1 7 L 2 4.6875 L 2.015625 4.699219 L 2.027344 4.710938 C 3.304688 2.53125 5.558594 1.191406 7.980469 1.019531 C 8.183594 1.003906 8.386719 1 8.59375 1 Z M 8.59375 1 "/>
<path style=" stroke:none;fill-rule:nonzero;fill:rgb(0%,0%,0%);fill-opacity:1;" d="M 8.5 5 C 8.222656 5 8 5.222656 8 5.5 L 8 8.707031 L 10.144531 10.855469 C 10.339844 11.046875 10.65625 11.046875 10.851562 10.855469 C 11.046875 10.660156 11.046875 10.339844 10.851562 10.144531 L 9 8.292969 L 9 5.5 C 9 5.222656 8.777344 5 8.5 5 Z M 8.5 5 "/>
<path style=" stroke:none;fill-rule:nonzero;fill:rgb(13.333334%,13.333334%,13.333334%);fill-opacity:1;" d="M 1 2 C 0.449219 2 0 2.449219 0 3 L 0 7 C 0 7.550781 0.449219 8 1 8 L 5 8 C 5.550781 8 6 7.550781 6 7 C 6 6.449219 5.550781 6 5 6 L 2 6 L 2 3 C 2 2.449219 1.550781 2 1 2 Z M 1 2 "/>
</g>
</svg>
